{
    "prepare_queue": {
        "installed": [],
        "uninstalled": []
    },
    "config_munge": {
        "files": {}
    },
    "installed_plugins": {
        "cordova-plugin-device-motion": {
            "PACKAGE_NAME": "bl.agi.gmap"
        },
        "cordova-plugin-geolocation": {
            "PACKAGE_NAME": "bl.agi.gmap"
        }
    },
    "dependent_plugins": {
        "cordova-plugin-whitelist": {
            "PACKAGE_NAME": "bl.agi.gmap"
        }
    }
}